<?xml version="1.0" encoding="UTF-8" standalone="no"?>
<!DOCTYPE svg PUBLIC "-//W3C//DTD SVG 1.1//EN"
 "http://www.w3.org/Graphics/SVG/1.1/DTD/svg11.dtd">
<!-- Generated by graphviz version 2.43.0 (0)
 -->
<!-- Title: systemd Pages: 1 -->
<svg width="9474pt" height="548pt"
 viewBox="0.00 0.00 9473.92 548.00" xmlns="http://www.w3.org/2000/svg" xmlns:xlink="http://www.w3.org/1999/xlink">
<g id="graph0" class="graph" transform="scale(1 1) rotate(0) translate(4 544)">
<title>systemd</title>
<polygon fill="white" stroke="transparent" points="-4,4 -4,-544 9469.92,-544 9469.92,4 -4,4"/>
<!-- timers.target -->
<g id="node1" class="node">
<title>timers.target</title>
<ellipse fill="none" stroke="black" cx="6208.33" cy="-522" rx="72.59" ry="18"/>
<text text-anchor="middle" x="6208.33" y="-518.3" font-family="Times,serif" font-size="14.00">timers.target</text>
</g>
<!-- shutdown.target -->
<g id="node2" class="node">
<title>shutdown.target</title>
<ellipse fill="none" stroke="black" cx="3035.33" cy="-450" rx="87.99" ry="18"/>
<text text-anchor="middle" x="3035.33" y="-446.3" font-family="Times,serif" font-size="14.00">shutdown.target</text>
</g>
<!-- timers.target&#45;&gt;shutdown.target -->
<g id="edge1" class="edge">
<title>timers.target&#45;&gt;shutdown.target</title>
<path fill="none" stroke="red" d="M6136.09,-519.41C5718.19,-510.19 3612.17,-463.73 3132.61,-453.15"/>
<polygon fill="red" stroke="red" points="3132.34,-449.64 3122.26,-452.92 3132.18,-456.64 3132.34,-449.64"/>
</g>
<!-- swap.target -->
<g id="node3" class="node">
<title>swap.target</title>
<ellipse fill="none" stroke="black" cx="7735.33" cy="-90" rx="66.09" ry="18"/>
<text text-anchor="middle" x="7735.33" y="-86.3" font-family="Times,serif" font-size="14.00">swap.target</text>
</g>
<!-- shutdown.target&#45;&gt;swap.target -->
<g id="edge134" class="edge">
<title>shutdown.target&#45;&gt;swap.target</title>
<path fill="none" stroke="green" d="M3123,-448.77C3869.36,-446.78 9130.1,-431.6 9201.33,-396 9245.85,-373.75 9269.33,-356.78 9269.33,-307 9269.33,-307 9269.33,-307 9269.33,-233 9269.33,-191.53 9274.33,-169.11 9241.33,-144 9183.86,-100.27 8110.94,-92.56 7812.02,-91.26"/>
<polygon fill="green" stroke="green" points="7811.73,-87.76 7801.71,-91.21 7811.7,-94.76 7811.73,-87.76"/>
</g>
<!-- time&#45;set.target -->
<g id="node4" class="node">
<title>time&#45;set.target</title>
<ellipse fill="none" stroke="black" cx="1969.33" cy="-306" rx="80.69" ry="18"/>
<text text-anchor="middle" x="1969.33" y="-302.3" font-family="Times,serif" font-size="14.00">time&#45;set.target</text>
</g>
<!-- shutdown.target&#45;&gt;time&#45;set.target -->
<g id="edge118" class="edge">
<title>shutdown.target&#45;&gt;time&#45;set.target</title>
<path fill="none" stroke="green" d="M2947.69,-448.92C2651.05,-448.24 1701.01,-442.45 1656.33,-396 1588.23,-325.22 1763.13,-309.88 1878.16,-307.08"/>
<polygon fill="green" stroke="green" points="1878.48,-310.57 1888.41,-306.86 1878.33,-303.57 1878.48,-310.57"/>
</g>
<!-- blockdev@dev&#45;loop7.target -->
<g id="node5" class="node">
<title>blockdev@dev&#45;loop7.target</title>
<ellipse fill="none" stroke="black" cx="184.33" cy="-378" rx="137.58" ry="18"/>
<text text-anchor="middle" x="184.33" y="-374.3" font-family="Times,serif" font-size="14.00">blockdev@dev&#45;loop7.target</text>
</g>
<!-- shutdown.target&#45;&gt;blockdev@dev&#45;loop7.target -->
<g id="edge112" class="edge">
<title>shutdown.target&#45;&gt;blockdev@dev&#45;loop7.target</title>
<path fill="none" stroke="green" d="M2947.79,-448.39C2543.41,-445.33 854.03,-430.55 327.33,-396 313.79,-395.11 299.6,-393.9 285.63,-392.53"/>
<polygon fill="green" stroke="green" points="285.81,-389.03 275.51,-391.51 285.1,-396 285.81,-389.03"/>
</g>
<!-- emergency.target -->
<g id="node6" class="node">
<title>emergency.target</title>
<ellipse fill="none" stroke="black" cx="685.33" cy="-90" rx="92.08" ry="18"/>
<text text-anchor="middle" x="685.33" y="-86.3" font-family="Times,serif" font-size="14.00">emergency.target</text>
</g>
<!-- shutdown.target&#45;&gt;emergency.target -->
<g id="edge132" class="edge">
<title>shutdown.target&#45;&gt;emergency.target</title>
<path fill="none" stroke="green" d="M2947.42,-448.86C2457.88,-447.87 88.23,-440.77 28.33,-396 -4.89,-371.18 0.33,-348.47 0.33,-307 0.33,-307 0.33,-307 0.33,-233 0.33,-116.14 392.1,-94.91 583.12,-91.43"/>
<polygon fill="green" stroke="green" points="583.24,-94.93 593.18,-91.26 583.12,-87.93 583.24,-94.93"/>
</g>
<!-- network&#45;online.target -->
<g id="node7" class="node">
<title>network&#45;online.target</title>
<ellipse fill="none" stroke="black" cx="1320.33" cy="-378" rx="111.58" ry="18"/>
<text text-anchor="middle" x="1320.33" y="-374.3" font-family="Times,serif" font-size="14.00">network&#45;online.target</text>
</g>
<!-- shutdown.target&#45;&gt;network&#45;online.target -->
<g id="edge96" class="edge">
<title>shutdown.target&#45;&gt;network&#45;online.target</title>
<path fill="none" stroke="green" d="M2947.47,-449.17C2705.84,-449.03 2011.5,-444.19 1437.33,-396 1426.91,-395.13 1416.03,-393.99 1405.28,-392.73"/>
<polygon fill="green" stroke="green" points="1405.38,-389.21 1395.03,-391.48 1404.53,-396.16 1405.38,-389.21"/>
</g>
<!-- network.target -->
<g id="node8" class="node">
<title>network.target</title>
<ellipse fill="none" stroke="black" cx="1407.33" cy="-306" rx="80.69" ry="18"/>
<text text-anchor="middle" x="1407.33" y="-302.3" font-family="Times,serif" font-size="14.00">network.target</text>
</g>
<!-- shutdown.target&#45;&gt;network.target -->
<g id="edge99" class="edge">
<title>shutdown.target&#45;&gt;network.target</title>
<path fill="none" stroke="green" d="M2947.6,-449.53C2640.71,-450.96 1627.09,-451.56 1493.33,-396 1461.59,-382.82 1434.04,-353.9 1418.78,-332.59"/>
<polygon fill="green" stroke="green" points="1421.68,-330.62 1413.2,-324.27 1415.87,-334.52 1421.68,-330.62"/>
</g>
<!-- blockdev@dev&#45;loop2.target -->
<g id="node9" class="node">
<title>blockdev@dev&#45;loop2.target</title>
<ellipse fill="none" stroke="black" cx="646.33" cy="-378" rx="137.58" ry="18"/>
<text text-anchor="middle" x="646.33" y="-374.3" font-family="Times,serif" font-size="14.00">blockdev@dev&#45;loop2.target</text>
</g>
<!-- shutdown.target&#45;&gt;blockdev@dev&#45;loop2.target -->
<g id="edge98" class="edge">
<title>shutdown.target&#45;&gt;blockdev@dev&#45;loop2.target</title>
<path fill="none" stroke="green" d="M2947.98,-447.99C2588.17,-443.62 1219.92,-425.12 789.33,-396 775.9,-395.09 761.82,-393.88 747.96,-392.51"/>
<polygon fill="green" stroke="green" points="748.22,-389.02 737.92,-391.49 747.51,-395.98 748.22,-389.02"/>
</g>
<!-- getty.target -->
<g id="node10" class="node">
<title>getty.target</title>
<ellipse fill="none" stroke="black" cx="494.33" cy="-234" rx="65.79" ry="18"/>
<text text-anchor="middle" x="494.33" y="-230.3" font-family="Times,serif" font-size="14.00">getty.target</text>
</g>
<!-- shutdown.target&#45;&gt;getty.target -->
<g id="edge140" class="edge">
<title>shutdown.target&#45;&gt;getty.target</title>
<path fill="none" stroke="green" d="M2947.47,-448.85C2502.41,-447.9 516.49,-441.09 472.33,-396 437.29,-360.23 457.45,-296.04 475.91,-260.47"/>
<polygon fill="green" stroke="green" points="479,-262.11 480.77,-251.66 472.88,-258.72 479,-262.11"/>
</g>
<!-- blockdev@dev&#45;loop9.target -->
<g id="node11" class="node">
<title>blockdev@dev&#45;loop9.target</title>
<ellipse fill="none" stroke="black" cx="996.33" cy="-378" rx="137.58" ry="18"/>
<text text-anchor="middle" x="996.33" y="-374.3" font-family="Times,serif" font-size="14.00">blockdev@dev&#45;loop9.target</text>
</g>
<!-- shutdown.target&#45;&gt;blockdev@dev&#45;loop9.target -->
<g id="edge113" class="edge">
<title>shutdown.target&#45;&gt;blockdev@dev&#45;loop9.target</title>
<path fill="none" stroke="green" d="M2947.67,-449.13C2677.61,-449.02 1834.88,-444.58 1139.33,-396 1126,-395.07 1112.05,-393.85 1098.29,-392.49"/>
<polygon fill="green" stroke="green" points="1098.63,-389 1088.33,-391.47 1097.92,-395.97 1098.63,-389"/>
</g>
<!-- graphical.target -->
<g id="node12" class="node">
<title>graphical.target</title>
<ellipse fill="none" stroke="black" cx="2486.33" cy="-378" rx="85.59" ry="18"/>
<text text-anchor="middle" x="2486.33" y="-374.3" font-family="Times,serif" font-size="14.00">graphical.target</text>
</g>
<!-- shutdown.target&#45;&gt;graphical.target -->
<g id="edge111" class="edge">
<title>shutdown.target&#45;&gt;graphical.target</title>
<path fill="none" stroke="green" d="M2957.32,-441.68C2865.88,-432.35 2710.18,-415.12 2577.33,-396 2570.26,-394.98 2562.92,-393.86 2555.6,-392.69"/>
<polygon fill="green" stroke="green" points="2556.11,-389.23 2545.68,-391.08 2554.99,-396.14 2556.11,-389.23"/>
</g>
<!-- multi&#45;user.target -->
<g id="node13" class="node">
<title>multi&#45;user.target</title>
<ellipse fill="none" stroke="black" cx="2427.33" cy="-306" rx="89.08" ry="18"/>
<text text-anchor="middle" x="2427.33" y="-302.3" font-family="Times,serif" font-size="14.00">multi&#45;user.target</text>
</g>
<!-- shutdown.target&#45;&gt;multi&#45;user.target -->
<g id="edge120" class="edge">
<title>shutdown.target&#45;&gt;multi&#45;user.target</title>
<path fill="none" stroke="green" d="M2947.93,-448.31C2778.65,-446.06 2419.64,-436.51 2382.33,-396 2365.48,-377.71 2380.5,-350.51 2397.74,-331"/>
<polygon fill="green" stroke="green" points="2400.34,-333.35 2404.66,-323.67 2395.25,-328.54 2400.34,-333.35"/>
</g>
<!-- rescue.target -->
<g id="node14" class="node">
<title>rescue.target</title>
<ellipse fill="none" stroke="black" cx="2709.33" cy="-234" rx="73.39" ry="18"/>
<text text-anchor="middle" x="2709.33" y="-230.3" font-family="Times,serif" font-size="14.00">rescue.target</text>
</g>
<!-- shutdown.target&#45;&gt;rescue.target -->
<g id="edge107" class="edge">
<title>shutdown.target&#45;&gt;rescue.target</title>
<path fill="none" stroke="green" d="M2982.67,-435.51C2954.35,-426.36 2919.66,-412.88 2891.33,-396 2825.1,-356.55 2758.76,-294.26 2727.4,-259.87"/>
<polygon fill="green" stroke="green" points="2729.81,-257.32 2720.55,-252.17 2724.58,-261.97 2729.81,-257.32"/>
</g>
<!-- zfs.target -->
<g id="node15" class="node">
<title>zfs.target</title>
<ellipse fill="none" stroke="black" cx="697.33" cy="-234" rx="55.79" ry="18"/>
<text text-anchor="middle" x="697.33" y="-230.3" font-family="Times,serif" font-size="14.00">zfs.target</text>
</g>
<!-- shutdown.target&#45;&gt;zfs.target -->
<g id="edge108" class="edge">
<title>shutdown.target&#45;&gt;zfs.target</title>
<path fill="none" stroke="green" d="M2947.71,-448.84C2505.02,-447.82 534.16,-440.76 490.33,-396 431.54,-335.97 568.5,-276.53 647.12,-249.75"/>
<polygon fill="green" stroke="green" points="648.49,-252.98 656.86,-246.49 646.27,-246.34 648.49,-252.98"/>
</g>
<!-- zfs&#45;volumes.target -->
<g id="node16" class="node">
<title>zfs&#45;volumes.target</title>
<ellipse fill="none" stroke="black" cx="456.33" cy="-162" rx="96.68" ry="18"/>
<text text-anchor="middle" x="456.33" y="-158.3" font-family="Times,serif" font-size="14.00">zfs&#45;volumes.target</text>
</g>
<!-- shutdown.target&#45;&gt;zfs&#45;volumes.target -->
<g id="edge103" class="edge">
<title>shutdown.target&#45;&gt;zfs&#45;volumes.target</title>
<path fill="none" stroke="green" d="M2947.72,-448.63C2501.59,-446.53 501.74,-434.88 451.33,-396 386.36,-345.89 385.71,-294.27 410.33,-216 413.54,-205.78 419.5,-195.81 426.19,-187.32"/>
<polygon fill="green" stroke="green" points="428.89,-189.55 432.75,-179.69 423.58,-184.99 428.89,-189.55"/>
</g>
<!-- zfs&#45;import.target -->
<g id="node17" class="node">
<title>zfs&#45;import.target</title>
<ellipse fill="none" stroke="black" cx="743.33" cy="-162" rx="89.88" ry="18"/>
<text text-anchor="middle" x="743.33" y="-158.3" font-family="Times,serif" font-size="14.00">zfs&#45;import.target</text>
</g>
<!-- shutdown.target&#45;&gt;zfs&#45;import.target -->
<g id="edge114" class="edge">
<title>shutdown.target&#45;&gt;zfs&#45;import.target</title>
<path fill="none" stroke="green" d="M2948.02,-448.17C2545.27,-444.13 884.94,-425.49 840.33,-396 821.79,-383.75 767.52,-248.44 748.96,-189.82"/>
<polygon fill="green" stroke="green" points="752.27,-188.68 746.01,-180.13 745.57,-190.72 752.27,-188.68"/>
</g>
<!-- getty&#45;pre.target -->
<g id="node18" class="node">
<title>getty&#45;pre.target</title>
<ellipse fill="none" stroke="black" cx="1759.33" cy="-378" rx="85.29" ry="18"/>
<text text-anchor="middle" x="1759.33" y="-374.3" font-family="Times,serif" font-size="14.00">getty&#45;pre.target</text>
</g>
<!-- shutdown.target&#45;&gt;getty&#45;pre.target -->
<g id="edge137" class="edge">
<title>shutdown.target&#45;&gt;getty&#45;pre.target</title>
<path fill="none" stroke="green" d="M2947.63,-449.1C2749.91,-448.49 2254.88,-442.12 1844.33,-396 1837.94,-395.28 1831.34,-394.39 1824.77,-393.4"/>
<polygon fill="green" stroke="green" points="1824.91,-389.88 1814.48,-391.77 1823.81,-396.79 1824.91,-389.88"/>
</g>
<!-- virt&#45;guest&#45;shutdown.target -->
<g id="node19" class="node">
<title>virt&#45;guest&#45;shutdown.target</title>
<ellipse fill="none" stroke="black" cx="1998.33" cy="-378" rx="135.68" ry="18"/>
<text text-anchor="middle" x="1998.33" y="-374.3" font-family="Times,serif" font-size="14.00">virt&#45;guest&#45;shutdown.target</text>
</g>
<!-- shutdown.target&#45;&gt;virt&#45;guest&#45;shutdown.target -->
<g id="edge119" class="edge">
<title>shutdown.target&#45;&gt;virt&#45;guest&#45;shutdown.target</title>
<path fill="none" stroke="green" d="M2949.83,-445.77C2789.49,-439.14 2433.16,-422.37 2134.33,-396 2123,-395 2111.19,-393.83 2099.46,-392.58"/>
<polygon fill="green" stroke="green" points="2099.51,-389.06 2089.19,-391.46 2098.76,-396.02 2099.51,-389.06"/>
</g>
<!-- network&#45;pre.target -->
<g id="node20" class="node">
<title>network&#45;pre.target</title>
<ellipse fill="none" stroke="black" cx="1525.33" cy="-234" rx="98.58" ry="18"/>
<text text-anchor="middle" x="1525.33" y="-230.3" font-family="Times,serif" font-size="14.00">network&#45;pre.target</text>
</g>
<!-- shutdown.target&#45;&gt;network&#45;pre.target -->
<g id="edge126" class="edge">
<title>shutdown.target&#45;&gt;network&#45;pre.target</title>
<path fill="none" stroke="green" d="M2947.87,-448.06C2646.9,-444.45 1669.67,-430.01 1612.33,-396 1562.39,-366.39 1535.43,-299.87 1526.72,-262.25"/>
<polygon fill="green" stroke="green" points="1530.07,-261.14 1524.67,-252.02 1523.21,-262.52 1530.07,-261.14"/>
</g>
<!-- sockets.target -->
<g id="node21" class="node">
<title>sockets.target</title>
<ellipse fill="none" stroke="black" cx="3082.33" cy="-162" rx="77.19" ry="18"/>
<text text-anchor="middle" x="3082.33" y="-158.3" font-family="Times,serif" font-size="14.00">sockets.target</text>
</g>
<!-- shutdown.target&#45;&gt;sockets.target -->
<g id="edge125" class="edge">
<title>shutdown.target&#45;&gt;sockets.target</title>
<path fill="none" stroke="green" d="M3022.48,-432.03C2999.79,-391.9 2960.48,-289.08 2998.33,-216 3005.6,-201.95 3018.51,-190.82 3032.12,-182.47"/>
<polygon fill="green" stroke="green" points="3034.13,-185.35 3041.1,-177.38 3030.68,-179.26 3034.13,-185.35"/>
</g>
<!-- sysinit.target -->
<g id="node22" class="node">
<title>sysinit.target</title>
<ellipse fill="none" stroke="black" cx="2913.33" cy="-162" rx="73.39" ry="18"/>
<text text-anchor="middle" x="2913.33" y="-158.3" font-family="Times,serif" font-size="14.00">sysinit.target</text>
</g>
<!-- shutdown.target&#45;&gt;sysinit.target -->
<g id="edge136" class="edge">
<title>shutdown.target&#45;&gt;sysinit.target</title>
<path fill="none" stroke="green" d="M3013.51,-432.12C3004.57,-422.08 2995.07,-408.83 2988.33,-396 2951.17,-325.33 2923.72,-234.59 2914.88,-190.08"/>
<polygon fill="green" stroke="green" points="2918.29,-189.27 2913.08,-180.05 2911.4,-190.51 2918.29,-189.27"/>
</g>
<!-- cryptsetup.target -->
<g id="node24" class="node">
<title>cryptsetup.target</title>
<ellipse fill="none" stroke="black" cx="2238.33" cy="-90" rx="92.88" ry="18"/>
<text text-anchor="middle" x="2238.33" y="-86.3" font-family="Times,serif" font-size="14.00">cryptsetup.target</text>
</g>
<!-- shutdown.target&#45;&gt;cryptsetup.target -->
<g id="edge100" class="edge">
<title>shutdown.target&#45;&gt;cryptsetup.target</title>
<path fill="none" stroke="green" d="M2947.38,-449.27C2589.77,-450.03 1260.91,-449.37 1190.33,-396 1157.25,-370.99 1162.33,-348.47 1162.33,-307 1162.33,-307 1162.33,-307 1162.33,-233 1162.33,-135.67 1868.89,-102.72 2136.93,-93.81"/>
<polygon fill="green" stroke="green" points="2137.17,-97.31 2147.05,-93.48 2136.94,-90.31 2137.17,-97.31"/>
</g>
<!-- nss&#45;lookup.target -->
<g id="node25" class="node">
<title>nss&#45;lookup.target</title>
<ellipse fill="none" stroke="black" cx="2738.33" cy="-378" rx="91.78" ry="18"/>
<text text-anchor="middle" x="2738.33" y="-374.3" font-family="Times,serif" font-size="14.00">nss&#45;lookup.target</text>
</g>
<!-- shutdown.target&#45;&gt;nss&#45;lookup.target -->
<g id="edge141" class="edge">
<title>shutdown.target&#45;&gt;nss&#45;lookup.target</title>
<path fill="none" stroke="green" d="M2976.91,-436.49C2926.11,-424.92 2852.8,-407.68 2800.83,-395.1"/>
<polygon fill="green" stroke="green" points="2801.61,-391.68 2791.06,-392.72 2799.95,-398.48 2801.61,-391.68"/>
</g>
<!-- basic.target -->
<g id="node26" class="node">
<title>basic.target</title>
<ellipse fill="none" stroke="black" cx="3082.33" cy="-234" rx="66.09" ry="18"/>
<text text-anchor="middle" x="3082.33" y="-230.3" font-family="Times,serif" font-size="14.00">basic.target</text>
</g>
<!-- shutdown.target&#45;&gt;basic.target -->
<g id="edge104" class="edge">
<title>shutdown.target&#45;&gt;basic.target</title>
<path fill="none" stroke="green" d="M3035.22,-431.85C3039.83,-394.66 3058.96,-306.37 3071.8,-261.77"/>
<polygon fill="green" stroke="green" points="3075.23,-262.52 3074.75,-251.94 3068.52,-260.51 3075.23,-262.52"/>
</g>
<!-- slices.target -->
<g id="node27" class="node">
<title>slices.target</title>
<ellipse fill="none" stroke="black" cx="5165.33" cy="-162" rx="68.49" ry="18"/>
<text text-anchor="middle" x="5165.33" y="-158.3" font-family="Times,serif" font-size="14.00">slices.target</text>
</g>
<!-- shutdown.target&#45;&gt;slices.target -->
<g id="edge115" class="edge">
<title>shutdown.target&#45;&gt;slices.target</title>
<path fill="none" stroke="green" d="M3123.29,-448.67C3708.04,-446.41 7010.62,-432.18 7046.33,-396 7057.56,-384.61 7057.04,-371.89 7046.33,-360 6923.3,-223.49 5582.65,-175.37 5243.09,-165.19"/>
<polygon fill="green" stroke="green" points="5242.96,-161.69 5232.87,-164.89 5242.76,-168.68 5242.96,-161.69"/>
</g>
<!-- paths.target -->
<g id="node28" class="node">
<title>paths.target</title>
<ellipse fill="none" stroke="black" cx="7902.33" cy="-162" rx="68.49" ry="18"/>
<text text-anchor="middle" x="7902.33" y="-158.3" font-family="Times,serif" font-size="14.00">paths.target</text>
</g>
<!-- shutdown.target&#45;&gt;paths.target -->
<g id="edge135" class="edge">
<title>shutdown.target&#45;&gt;paths.target</title>
<path fill="none" stroke="green" d="M3123.2,-449C3823.94,-448.88 8479.63,-446.18 8529.33,-396 8700.23,-223.44 8181.41,-177.66 7979.26,-166.41"/>
<polygon fill="green" stroke="green" points="7979.18,-162.9 7969,-165.85 7978.8,-169.89 7979.18,-162.9"/>
</g>
<!-- machines.target -->
<g id="node29" class="node">
<title>machines.target</title>
<ellipse fill="none" stroke="black" cx="2035.33" cy="-234" rx="86.38" ry="18"/>
<text text-anchor="middle" x="2035.33" y="-230.3" font-family="Times,serif" font-size="14.00">machines.target</text>
</g>
<!-- shutdown.target&#45;&gt;machines.target -->
<g id="edge138" class="edge">
<title>shutdown.target&#45;&gt;machines.target</title>
<path fill="none" stroke="green" d="M2947.5,-448.97C2647.8,-448.45 1681.73,-443.17 1636.33,-396 1540.15,-296.08 1799.55,-255.9 1944.82,-241.74"/>
<polygon fill="green" stroke="green" points="1945.46,-245.2 1955.08,-240.77 1944.79,-238.23 1945.46,-245.2"/>
</g>
<!-- blockdev@dev&#45;disk&#45;by\x2duuid&#45;3651\x2d6028.target -->
<g id="node30" class="node">
<title>blockdev@dev&#45;disk&#45;by\x2duuid&#45;3651\x2d6028.target</title>
<ellipse fill="none" stroke="black" cx="3322.33" cy="-378" rx="249.66" ry="18"/>
<text text-anchor="middle" x="3322.33" y="-374.3" font-family="Times,serif" font-size="14.00">blockdev@dev&#45;disk&#45;byx2duuid&#45;3651x2d6028.target</text>
</g>
<!-- shutdown.target&#45;&gt;blockdev@dev&#45;disk&#45;by\x2duuid&#45;3651\x2d6028.target -->
<g id="edge131" class="edge">
<title>shutdown.target&#45;&gt;blockdev@dev&#45;disk&#45;by\x2duuid&#45;3651\x2d6028.target</title>
<path fill="none" stroke="green" d="M3086.19,-435.25C3128.88,-424.48 3190.56,-409.4 3240.21,-397.56"/>
<polygon fill="green" stroke="green" points="3241.05,-400.95 3249.97,-395.23 3239.43,-394.14 3241.05,-400.95"/>
</g>
<!-- blockdev@dev&#45;loop1.target -->
<g id="node31" class="node">
<title>blockdev@dev&#45;loop1.target</title>
<ellipse fill="none" stroke="black" cx="3727.33" cy="-378" rx="137.58" ry="18"/>
<text text-anchor="middle" x="3727.33" y="-374.3" font-family="Times,serif" font-size="14.00">blockdev@dev&#45;loop1.target</text>
</g>
<!-- shutdown.target&#45;&gt;blockdev@dev&#45;loop1.target -->
<g id="edge116" class="edge">
<title>shutdown.target&#45;&gt;blockdev@dev&#45;loop1.target</title>
<path fill="none" stroke="green" d="M3112.86,-441.37C3217.3,-431.49 3408.73,-413.46 3572.33,-396 3586.14,-394.53 3600.68,-392.91 3615.1,-391.28"/>
<polygon fill="green" stroke="green" points="3615.51,-394.75 3625.05,-390.15 3614.72,-387.8 3615.51,-394.75"/>
</g>
<!-- printer.target -->
<g id="node32" class="node">
<title>printer.target</title>
<ellipse fill="none" stroke="black" cx="3957.33" cy="-378" rx="74.19" ry="18"/>
<text text-anchor="middle" x="3957.33" y="-374.3" font-family="Times,serif" font-size="14.00">printer.target</text>
</g>
<!-- shutdown.target&#45;&gt;printer.target -->
<g id="edge105" class="edge">
<title>shutdown.target&#45;&gt;printer.target</title>
<path fill="none" stroke="green" d="M3122.39,-447.35C3273.97,-443.65 3595.7,-431.95 3865.33,-396 3873.8,-394.87 3882.71,-393.38 3891.51,-391.74"/>
<polygon fill="green" stroke="green" points="3892.23,-395.17 3901.39,-389.85 3890.91,-388.3 3892.23,-395.17"/>
</g>
<!-- cloud&#45;init.target -->
<g id="node34" class="node">
<title>cloud&#45;init.target</title>
<ellipse fill="none" stroke="black" cx="2479.33" cy="-234" rx="85.59" ry="18"/>
<text text-anchor="middle" x="2479.33" y="-230.3" font-family="Times,serif" font-size="14.00">cloud&#45;init.target</text>
</g>
<!-- shutdown.target&#45;&gt;cloud&#45;init.target -->
<g id="edge110" class="edge">
<title>shutdown.target&#45;&gt;cloud&#45;init.target</title>
<path fill="none" stroke="green" d="M2951.27,-444.63C2848.84,-438.03 2682.88,-423.27 2628.33,-396 2611.67,-387.67 2532.51,-302.81 2496.64,-259.76"/>
<polygon fill="green" stroke="green" points="2499.32,-257.51 2490.27,-251.99 2493.91,-261.95 2499.32,-257.51"/>
</g>
<!-- sound.target -->
<g id="node35" class="node">
<title>sound.target</title>
<ellipse fill="none" stroke="black" cx="4119.33" cy="-378" rx="70.39" ry="18"/>
<text text-anchor="middle" x="4119.33" y="-374.3" font-family="Times,serif" font-size="14.00">sound.target</text>
</g>
<!-- shutdown.target&#45;&gt;sound.target -->
<g id="edge101" class="edge">
<title>shutdown.target&#45;&gt;sound.target</title>
<path fill="none" stroke="green" d="M3123.1,-449.03C3297.15,-447.99 3697.71,-440.4 4031.33,-396 4039.33,-394.93 4047.74,-393.49 4056.05,-391.89"/>
<polygon fill="green" stroke="green" points="4057.01,-395.26 4066.12,-389.87 4055.63,-388.4 4057.01,-395.26"/>
</g>
<!-- cloud&#45;config.target -->
<g id="node36" class="node">
<title>cloud&#45;config.target</title>
<ellipse fill="none" stroke="black" cx="4305.33" cy="-378" rx="98.28" ry="18"/>
<text text-anchor="middle" x="4305.33" y="-374.3" font-family="Times,serif" font-size="14.00">cloud&#45;config.target</text>
</g>
<!-- shutdown.target&#45;&gt;cloud&#45;config.target -->
<g id="edge102" class="edge">
<title>shutdown.target&#45;&gt;cloud&#45;config.target</title>
<path fill="none" stroke="green" d="M3122.68,-448.3C3315.62,-446.04 3792.2,-436.47 4189.33,-396 4200.33,-394.88 4211.91,-393.38 4223.35,-391.73"/>
<polygon fill="green" stroke="green" points="4223.97,-395.17 4233.35,-390.25 4222.94,-388.25 4223.97,-395.17"/>
</g>
<!-- blockdev@dev&#45;loop5.target -->
<g id="node37" class="node">
<title>blockdev@dev&#45;loop5.target</title>
<ellipse fill="none" stroke="black" cx="4559.33" cy="-378" rx="137.58" ry="18"/>
<text text-anchor="middle" x="4559.33" y="-374.3" font-family="Times,serif" font-size="14.00">blockdev@dev&#45;loop5.target</text>
</g>
<!-- shutdown.target&#45;&gt;blockdev@dev&#45;loop5.target -->
<g id="edge129" class="edge">
<title>shutdown.target&#45;&gt;blockdev@dev&#45;loop5.target</title>
<path fill="none" stroke="green" d="M3122.77,-447.89C3339.84,-444.7 3920.29,-433.17 4403.33,-396 4418.35,-394.84 4434.21,-393.33 4449.83,-391.67"/>
<polygon fill="green" stroke="green" points="4450.49,-395.12 4460.06,-390.57 4449.74,-388.16 4450.49,-395.12"/>
</g>
<!-- time&#45;sync.target -->
<g id="node38" class="node">
<title>time&#45;sync.target</title>
<ellipse fill="none" stroke="black" cx="2239.33" cy="-378" rx="87.18" ry="18"/>
<text text-anchor="middle" x="2239.33" y="-374.3" font-family="Times,serif" font-size="14.00">time&#45;sync.target</text>
</g>
<!-- shutdown.target&#45;&gt;time&#45;sync.target -->
<g id="edge124" class="edge">
<title>shutdown.target&#45;&gt;time&#45;sync.target</title>
<path fill="none" stroke="green" d="M2950.55,-445.3C2817.9,-438.74 2553.7,-423.14 2331.33,-396 2323.84,-395.09 2316.06,-394.01 2308.33,-392.85"/>
<polygon fill="green" stroke="green" points="2308.65,-389.35 2298.24,-391.28 2307.58,-396.27 2308.65,-389.35"/>
</g>
<!-- blockdev@dev&#45;loop3.target -->
<g id="node39" class="node">
<title>blockdev@dev&#45;loop3.target</title>
<ellipse fill="none" stroke="black" cx="4853.33" cy="-378" rx="137.58" ry="18"/>
<text text-anchor="middle" x="4853.33" y="-374.3" font-family="Times,serif" font-size="14.00">blockdev@dev&#45;loop3.target</text>
</g>
<!-- shutdown.target&#45;&gt;blockdev@dev&#45;loop3.target -->
<g id="edge121" class="edge">
<title>shutdown.target&#45;&gt;blockdev@dev&#45;loop3.target</title>
<path fill="none" stroke="green" d="M3123.2,-448.77C3371.04,-447.57 4096.32,-440.21 4697.33,-396 4712.46,-394.89 4728.43,-393.38 4744.17,-391.73"/>
<polygon fill="green" stroke="green" points="4744.89,-395.17 4754.46,-390.62 4744.14,-388.21 4744.89,-395.17"/>
</g>
<!-- blockdev@dev&#45;loop11.target -->
<g id="node40" class="node">
<title>blockdev@dev&#45;loop11.target</title>
<ellipse fill="none" stroke="black" cx="5152.33" cy="-378" rx="143.77" ry="18"/>
<text text-anchor="middle" x="5152.33" y="-374.3" font-family="Times,serif" font-size="14.00">blockdev@dev&#45;loop11.target</text>
</g>
<!-- shutdown.target&#45;&gt;blockdev@dev&#45;loop11.target -->
<g id="edge109" class="edge">
<title>shutdown.target&#45;&gt;blockdev@dev&#45;loop11.target</title>
<path fill="none" stroke="green" d="M3123.12,-449.27C3398.73,-449.52 4270.84,-445.92 4991.33,-396 5007.01,-394.91 5023.57,-393.42 5039.88,-391.77"/>
<polygon fill="green" stroke="green" points="5040.4,-395.23 5049.98,-390.72 5039.68,-388.27 5040.4,-395.23"/>
</g>
<!-- blockdev@dev&#45;sdb1.target -->
<g id="node41" class="node">
<title>blockdev@dev&#45;sdb1.target</title>
<ellipse fill="none" stroke="black" cx="5448.33" cy="-378" rx="134.58" ry="18"/>
<text text-anchor="middle" x="5448.33" y="-374.3" font-family="Times,serif" font-size="14.00">blockdev@dev&#45;sdb1.target</text>
</g>
<!-- shutdown.target&#45;&gt;blockdev@dev&#45;sdb1.target -->
<g id="edge117" class="edge">
<title>shutdown.target&#45;&gt;blockdev@dev&#45;sdb1.target</title>
<path fill="none" stroke="green" d="M3122.83,-448.03C3484.23,-443.95 4861.58,-426.85 5296.33,-396 5311.26,-394.94 5327.03,-393.45 5342.55,-391.78"/>
<polygon fill="green" stroke="green" points="5343.14,-395.24 5352.7,-390.66 5342.37,-388.28 5343.14,-395.24"/>
</g>
<!-- blockdev@dev&#45;loop8.target -->
<g id="node42" class="node">
<title>blockdev@dev&#45;loop8.target</title>
<ellipse fill="none" stroke="black" cx="5738.33" cy="-378" rx="137.58" ry="18"/>
<text text-anchor="middle" x="5738.33" y="-374.3" font-family="Times,serif" font-size="14.00">blockdev@dev&#45;loop8.target</text>
</g>
<!-- shutdown.target&#45;&gt;blockdev@dev&#45;loop8.target -->
<g id="edge123" class="edge">
<title>shutdown.target&#45;&gt;blockdev@dev&#45;loop8.target</title>
<path fill="none" stroke="green" d="M3122.85,-448.28C3512.19,-444.96 5088.85,-429.84 5583.33,-396 5598.47,-394.96 5614.45,-393.49 5630.19,-391.84"/>
<polygon fill="green" stroke="green" points="5630.91,-395.28 5640.48,-390.74 5630.16,-388.32 5630.91,-395.28"/>
</g>
<!-- blockdev@dev&#45;disk&#45;by\x2duuid&#45;0c1c9145\x2d6f73\x2d4a99\x2d8ce6\x2db8f5af48622d.target -->
<g id="node43" class="node">
<title>blockdev@dev&#45;disk&#45;by\x2duuid&#45;0c1c9145\x2d6f73\x2d4a99\x2d8ce6\x2db8f5af48622d.target</title>
<ellipse fill="none" stroke="black" cx="6323.33" cy="-378" rx="429.72" ry="18"/>
<text text-anchor="middle" x="6323.33" y="-374.3" font-family="Times,serif" font-size="14.00">blockdev@dev&#45;disk&#45;byx2duuid&#45;0c1c9145x2d6f73x2d4a99x2d8ce6x2db8f5af48622d.target</text>
</g>
<!-- shutdown.target&#45;&gt;blockdev@dev&#45;disk&#45;by\x2duuid&#45;0c1c9145\x2d6f73\x2d4a99\x2d8ce6\x2db8f5af48622d.target -->
<g id="edge128" class="edge">
<title>shutdown.target&#45;&gt;blockdev@dev&#45;disk&#45;by\x2duuid&#45;0c1c9145\x2d6f73\x2d4a99\x2d8ce6\x2db8f5af48622d.target</title>
<path fill="none" stroke="green" d="M3122.77,-447.98C3470.71,-443.86 4790.21,-427.17 5876.33,-396 5921.42,-394.71 5969.11,-393.1 6015.89,-391.4"/>
<polygon fill="green" stroke="green" points="6016.31,-394.88 6026.17,-391.02 6016.05,-387.89 6016.31,-394.88"/>
</g>
<!-- blockdev@dev&#45;loop0.target -->
<g id="node44" class="node">
<title>blockdev@dev&#45;loop0.target</title>
<ellipse fill="none" stroke="black" cx="6908.33" cy="-378" rx="137.58" ry="18"/>
<text text-anchor="middle" x="6908.33" y="-374.3" font-family="Times,serif" font-size="14.00">blockdev@dev&#45;loop0.target</text>
</g>
<!-- shutdown.target&#45;&gt;blockdev@dev&#45;loop0.target -->
<g id="edge143" class="edge">
<title>shutdown.target&#45;&gt;blockdev@dev&#45;loop0.target</title>
<path fill="none" stroke="green" d="M3123.32,-448.96C3613.76,-448.57 6013.75,-444.19 6753.33,-396 6768.57,-395.01 6784.68,-393.55 6800.52,-391.9"/>
<polygon fill="green" stroke="green" points="6801.31,-395.33 6810.88,-390.78 6800.56,-388.37 6801.31,-395.33"/>
</g>
<!-- local&#45;fs&#45;pre.target -->
<g id="node45" class="node">
<title>local&#45;fs&#45;pre.target</title>
<ellipse fill="none" stroke="black" cx="9372.33" cy="-18" rx="93.68" ry="18"/>
<text text-anchor="middle" x="9372.33" y="-14.3" font-family="Times,serif" font-size="14.00">local&#45;fs&#45;pre.target</text>
</g>
<!-- shutdown.target&#45;&gt;local&#45;fs&#45;pre.target -->
<g id="edge133" class="edge">
<title>shutdown.target&#45;&gt;local&#45;fs&#45;pre.target</title>
<path fill="none" stroke="green" d="M3123.13,-448.8C3873.36,-447.03 9179.26,-433.33 9250.33,-396 9327.72,-355.35 9363.33,-322.42 9363.33,-235 9363.33,-235 9363.33,-235 9363.33,-161 9363.33,-121 9363.33,-74.65 9365.62,-46.08"/>
<polygon fill="green" stroke="green" points="9369.11,-46.35 9366.61,-36.05 9362.14,-45.65 9369.11,-46.35"/>
</g>
<!-- blockdev@dev&#45;loop6.target -->
<g id="node46" class="node">
<title>blockdev@dev&#45;loop6.target</title>
<ellipse fill="none" stroke="black" cx="7258.33" cy="-378" rx="137.58" ry="18"/>
<text text-anchor="middle" x="7258.33" y="-374.3" font-family="Times,serif" font-size="14.00">blockdev@dev&#45;loop6.target</text>
</g>
<!-- shutdown.target&#45;&gt;blockdev@dev&#45;loop6.target -->
<g id="edge139" class="edge">
<title>shutdown.target&#45;&gt;blockdev@dev&#45;loop6.target</title>
<path fill="none" stroke="green" d="M3123.08,-449.03C3639.29,-449.05 6284.94,-446.59 7097.33,-396 7114.05,-394.96 7131.77,-393.4 7149.11,-391.64"/>
<polygon fill="green" stroke="green" points="7149.68,-395.1 7159.26,-390.58 7148.95,-388.13 7149.68,-395.1"/>
</g>
<!-- nss&#45;user&#45;lookup.target -->
<g id="node47" class="node">
<title>nss&#45;user&#45;lookup.target</title>
<ellipse fill="none" stroke="black" cx="7529.33" cy="-378" rx="115.08" ry="18"/>
<text text-anchor="middle" x="7529.33" y="-374.3" font-family="Times,serif" font-size="14.00">nss&#45;user&#45;lookup.target</text>
</g>
<!-- shutdown.target&#45;&gt;nss&#45;user&#45;lookup.target -->
<g id="edge97" class="edge">
<title>shutdown.target&#45;&gt;nss&#45;user&#45;lookup.target</title>
<path fill="none" stroke="green" d="M3122.85,-448.58C3700.58,-445.77 6955.81,-428.74 7396.33,-396 7409.36,-395.03 7423.12,-393.58 7436.66,-391.92"/>
<polygon fill="green" stroke="green" points="7437.47,-395.35 7446.95,-390.62 7436.59,-388.4 7437.47,-395.35"/>
</g>
<!-- blockdev@dev&#45;loop10.target -->
<g id="node48" class="node">
<title>blockdev@dev&#45;loop10.target</title>
<ellipse fill="none" stroke="black" cx="7806.33" cy="-378" rx="143.77" ry="18"/>
<text text-anchor="middle" x="7806.33" y="-374.3" font-family="Times,serif" font-size="14.00">blockdev@dev&#45;loop10.target</text>
</g>
<!-- shutdown.target&#45;&gt;blockdev@dev&#45;loop10.target -->
<g id="edge127" class="edge">
<title>shutdown.target&#45;&gt;blockdev@dev&#45;loop10.target</title>
<path fill="none" stroke="green" d="M3123.15,-449.19C3679.19,-450.17 6716.23,-452.75 7644.33,-396 7660.72,-395 7678.05,-393.5 7695.06,-391.8"/>
<polygon fill="green" stroke="green" points="7695.44,-395.28 7705.03,-390.77 7694.72,-388.31 7695.44,-395.28"/>
</g>
<!-- blockdev@dev&#45;loop4.target -->
<g id="node49" class="node">
<title>blockdev@dev&#45;loop4.target</title>
<ellipse fill="none" stroke="black" cx="8105.33" cy="-378" rx="137.58" ry="18"/>
<text text-anchor="middle" x="8105.33" y="-374.3" font-family="Times,serif" font-size="14.00">blockdev@dev&#45;loop4.target</text>
</g>
<!-- shutdown.target&#45;&gt;blockdev@dev&#45;loop4.target -->
<g id="edge130" class="edge">
<title>shutdown.target&#45;&gt;blockdev@dev&#45;loop4.target</title>
<path fill="none" stroke="green" d="M3122.99,-448.6C3742.58,-445.76 7450.67,-427.69 7950.33,-396 7965.83,-395.02 7982.21,-393.54 7998.3,-391.86"/>
<polygon fill="green" stroke="green" points="7998.7,-395.34 8008.27,-390.79 7997.96,-388.38 7998.7,-395.34"/>
</g>
<!-- blockdev@dev&#45;sda1.target -->
<g id="node50" class="node">
<title>blockdev@dev&#45;sda1.target</title>
<ellipse fill="none" stroke="black" cx="8395.33" cy="-378" rx="133.78" ry="18"/>
<text text-anchor="middle" x="8395.33" y="-374.3" font-family="Times,serif" font-size="14.00">blockdev@dev&#45;sda1.target</text>
</g>
<!-- shutdown.target&#45;&gt;blockdev@dev&#45;sda1.target -->
<g id="edge142" class="edge">
<title>shutdown.target&#45;&gt;blockdev@dev&#45;sda1.target</title>
<path fill="none" stroke="green" d="M3122.89,-448.68C3763.16,-446.25 7712.49,-430.15 8243.33,-396 8258.47,-395.03 8274.47,-393.56 8290.2,-391.88"/>
<polygon fill="green" stroke="green" points="8290.92,-395.33 8300.48,-390.76 8290.15,-388.37 8290.92,-395.33"/>
</g>
<!-- remote&#45;fs&#45;pre.target -->
<g id="node51" class="node">
<title>remote&#45;fs&#45;pre.target</title>
<ellipse fill="none" stroke="black" cx="9136.33" cy="-162" rx="105.08" ry="18"/>
<text text-anchor="middle" x="9136.33" y="-158.3" font-family="Times,serif" font-size="14.00">remote&#45;fs&#45;pre.target</text>
</g>
<!-- shutdown.target&#45;&gt;remote&#45;fs&#45;pre.target -->
<g id="edge106" class="edge">
<title>shutdown.target&#45;&gt;remote&#45;fs&#45;pre.target</title>
<path fill="none" stroke="green" d="M3123.21,-449.02C3868.5,-449.1 9103.53,-447.8 9163.33,-396 9224.24,-343.23 9217.84,-289.75 9185.33,-216 9180.3,-204.61 9171.49,-194.6 9162.64,-186.44"/>
<polygon fill="green" stroke="green" points="9164.78,-183.67 9154.94,-179.76 9160.19,-188.96 9164.78,-183.67"/>
</g>
<!-- blockdev@dev&#45;disk&#45;by\x2dlabel&#45;VM\x2dImages.target -->
<g id="node52" class="node">
<title>blockdev@dev&#45;disk&#45;by\x2dlabel&#45;VM\x2dImages.target</title>
<ellipse fill="none" stroke="black" cx="8856.33" cy="-378" rx="253.46" ry="18"/>
<text text-anchor="middle" x="8856.33" y="-374.3" font-family="Times,serif" font-size="14.00">blockdev@dev&#45;disk&#45;byx2dlabel&#45;VMx2dImages.target</text>
</g>
<!-- shutdown.target&#45;&gt;blockdev@dev&#45;disk&#45;by\x2dlabel&#45;VM\x2dImages.target -->
<g id="edge122" class="edge">
<title>shutdown.target&#45;&gt;blockdev@dev&#45;disk&#45;by\x2dlabel&#45;VM\x2dImages.target</title>
<path fill="none" stroke="green" d="M3123.23,-448.81C3742.16,-447.38 7452.27,-437.26 8580.33,-396 8609.52,-394.93 8640.48,-393.36 8670.72,-391.6"/>
<polygon fill="green" stroke="green" points="8671.16,-395.08 8680.94,-391 8670.75,-388.1 8671.16,-395.08"/>
</g>
<!-- swap.target&#45;&gt;shutdown.target -->
<g id="edge2" class="edge">
<title>swap.target&#45;&gt;shutdown.target</title>
<path fill="none" stroke="red" d="M7801.6,-91.19C8087.23,-92.28 9200.75,-99.42 9259.33,-144 9292.33,-169.11 9287.33,-191.53 9287.33,-233 9287.33,-307 9287.33,-307 9287.33,-307 9287.33,-356.78 9263.85,-373.75 9219.33,-396 9148.31,-431.49 3917.02,-446.69 3133.15,-448.75"/>
<polygon fill="red" stroke="red" points="3133.02,-445.25 3123.03,-448.78 3133.04,-452.25 3133.02,-445.25"/>
</g>
<!-- time&#45;set.target&#45;&gt;shutdown.target -->
<g id="edge3" class="edge">
<title>time&#45;set.target&#45;&gt;shutdown.target</title>
<path fill="none" stroke="red" d="M1888.47,-307.12C1779.45,-310.03 1606.56,-325.56 1674.33,-396 1718.15,-441.55 2632.86,-448 2937.58,-448.88"/>
<polygon fill="red" stroke="red" points="2937.72,-452.38 2947.73,-448.9 2937.74,-445.38 2937.72,-452.38"/>
</g>
<!-- blockdev@dev&#45;loop7.target&#45;&gt;shutdown.target -->
<g id="edge4" class="edge">
<title>blockdev@dev&#45;loop7.target&#45;&gt;shutdown.target</title>
<path fill="none" stroke="red" d="M283.8,-390.52C304.18,-392.7 325.45,-394.7 345.33,-396 865.19,-430.1 2517.75,-444.95 2937.61,-448.26"/>
<polygon fill="red" stroke="red" points="2937.86,-451.76 2947.89,-448.34 2937.92,-444.76 2937.86,-451.76"/>
</g>
<!-- emergency.target&#45;&gt;shutdown.target -->
<g id="edge5" class="edge">
<title>emergency.target&#45;&gt;shutdown.target</title>
<path fill="none" stroke="red" d="M593.14,-91.44C410.05,-94.91 18.33,-116.15 18.33,-233 18.33,-307 18.33,-307 18.33,-307 18.33,-348.47 13.11,-371.18 46.33,-396 105.63,-440.32 2428.36,-447.73 2937.41,-448.82"/>
<polygon fill="red" stroke="red" points="2937.66,-452.32 2947.66,-448.85 2937.67,-445.32 2937.66,-452.32"/>
</g>
<!-- network&#45;online.target&#45;&gt;shutdown.target -->
<g id="edge7" class="edge">
<title>network&#45;online.target&#45;&gt;shutdown.target</title>
<path fill="none" stroke="red" d="M1402.9,-390.23C1420.24,-392.47 1438.39,-394.58 1455.33,-396 2015.21,-442.99 2689.35,-448.76 2937.55,-449.15"/>
<polygon fill="red" stroke="red" points="2937.62,-452.65 2947.62,-449.17 2937.63,-445.65 2937.62,-452.65"/>
</g>
<!-- network&#45;online.target&#45;&gt;network.target -->
<g id="edge6" class="edge">
<title>network&#45;online.target&#45;&gt;network.target</title>
<path fill="none" stroke="green" d="M1341.39,-360.05C1352.58,-351.05 1366.51,-339.84 1378.67,-330.05"/>
<polygon fill="green" stroke="green" points="1381.16,-332.54 1386.76,-323.55 1376.77,-327.09 1381.16,-332.54"/>
</g>
<!-- network.target&#45;&gt;shutdown.target -->
<g id="edge66" class="edge">
<title>network.target&#45;&gt;shutdown.target</title>
<path fill="none" stroke="red" d="M1425.32,-323.9C1444.17,-345.22 1475.01,-380.92 1511.33,-396 1642.63,-450.54 2621.67,-450.97 2937.48,-449.61"/>
<polygon fill="red" stroke="red" points="2937.55,-453.11 2947.53,-449.57 2937.52,-446.11 2937.55,-453.11"/>
</g>
<!-- network.target&#45;&gt;network&#45;pre.target -->
<g id="edge65" class="edge">
<title>network.target&#45;&gt;network&#45;pre.target</title>
<path fill="none" stroke="green" d="M1434.4,-288.94C1450.51,-279.39 1471.16,-267.13 1488.71,-256.72"/>
<polygon fill="green" stroke="green" points="1490.75,-259.58 1497.56,-251.47 1487.17,-253.56 1490.75,-259.58"/>
</g>
<!-- blockdev@dev&#45;loop2.target&#45;&gt;shutdown.target -->
<g id="edge8" class="edge">
<title>blockdev@dev&#45;loop2.target&#45;&gt;shutdown.target</title>
<path fill="none" stroke="red" d="M745.81,-390.46C766.18,-392.64 787.46,-394.66 807.33,-396 1231.4,-424.68 2564.98,-443.06 2937.72,-447.79"/>
<polygon fill="red" stroke="red" points="2937.89,-451.29 2947.94,-447.92 2937.98,-444.29 2937.89,-451.29"/>
</g>
<!-- getty.target&#45;&gt;shutdown.target -->
<g id="edge9" class="edge">
<title>getty.target&#45;&gt;shutdown.target</title>
<path fill="none" stroke="red" d="M490.7,-252.17C479.21,-285.09 452.36,-357.24 490.33,-396 533.98,-440.57 2475.45,-447.74 2937.44,-448.82"/>
<polygon fill="red" stroke="red" points="2937.75,-452.32 2947.75,-448.84 2937.76,-445.32 2937.75,-452.32"/>
</g>
<!-- blockdev@dev&#45;loop9.target&#45;&gt;shutdown.target -->
<g id="edge10" class="edge">
<title>blockdev@dev&#45;loop9.target&#45;&gt;shutdown.target</title>
<path fill="none" stroke="red" d="M1096.22,-390.44C1116.47,-392.61 1137.59,-394.62 1157.33,-396 1837.53,-443.51 2658.48,-448.8 2937.3,-449.12"/>
<polygon fill="red" stroke="red" points="2937.38,-452.62 2947.38,-449.13 2937.39,-445.62 2937.38,-452.62"/>
</g>
<!-- graphical.target&#45;&gt;shutdown.target -->
<g id="edge14" class="edge">
<title>graphical.target&#45;&gt;shutdown.target</title>
<path fill="none" stroke="red" d="M2553.16,-389.39C2567.14,-391.7 2581.73,-394.04 2595.33,-396 2718.57,-413.74 2861.49,-429.84 2950.23,-439.53"/>
<polygon fill="red" stroke="red" points="2949.92,-443.02 2960.24,-440.62 2950.68,-436.06 2949.92,-443.02"/>
</g>
<!-- graphical.target&#45;&gt;multi&#45;user.target -->
<g id="edge11" class="edge">
<title>graphical.target&#45;&gt;multi&#45;user.target</title>
<path fill="none" stroke="green" d="M2466.5,-360.41C2458.41,-351.91 2449.31,-341.37 2441.83,-331.91"/>
<polygon fill="green" stroke="green" points="2444.6,-329.77 2435.74,-323.96 2439.04,-334.02 2444.6,-329.77"/>
</g>
<!-- graphical.target&#45;&gt;multi&#45;user.target -->
<g id="edge13" class="edge">
<title>graphical.target&#45;&gt;multi&#45;user.target</title>
<path fill="none" stroke="black" d="M2477.92,-360.05C2471.59,-351.46 2462.85,-340.86 2454.36,-331.4"/>
<polygon fill="black" stroke="black" points="2456.69,-328.77 2447.34,-323.79 2451.55,-333.51 2456.69,-328.77"/>
</g>
<!-- graphical.target&#45;&gt;rescue.target -->
<g id="edge12" class="edge">
<title>graphical.target&#45;&gt;rescue.target</title>
<path fill="none" stroke="green" d="M2507.82,-360.43C2545.8,-334.45 2624.62,-284.17 2671.73,-255.8"/>
<polygon fill="green" stroke="green" points="2673.63,-258.73 2680.42,-250.6 2670.04,-252.73 2673.63,-258.73"/>
</g>
<!-- graphical.target&#45;&gt;rescue.target -->
<g id="edge15" class="edge">
<title>graphical.target&#45;&gt;rescue.target</title>
<path fill="none" stroke="red" d="M2515.94,-360.99C2558.74,-335.54 2637.03,-285.81 2679.78,-257.03"/>
<polygon fill="red" stroke="red" points="2681.78,-259.9 2688.09,-251.39 2677.85,-254.11 2681.78,-259.9"/>
</g>
<!-- multi&#45;user.target&#45;&gt;shutdown.target -->
<g id="edge62" class="edge">
<title>multi&#45;user.target&#45;&gt;shutdown.target</title>
<path fill="none" stroke="red" d="M2417.22,-324.02C2402.79,-343.51 2381.36,-375.4 2400.33,-396 2436.17,-434.92 2768.89,-445.26 2937.89,-448.01"/>
<polygon fill="red" stroke="red" points="2937.98,-451.51 2948.04,-448.16 2938.09,-444.51 2937.98,-451.51"/>
</g>
<!-- multi&#45;user.target&#45;&gt;getty.target -->
<g id="edge51" class="edge">
<title>multi&#45;user.target&#45;&gt;getty.target</title>
<path fill="none" stroke="green" d="M2341.79,-300.89C2265.24,-297.11 2150.2,-291.57 2050.33,-288 1416.31,-265.36 1256.02,-298.84 623.33,-252 602.32,-250.44 579.6,-247.97 559.13,-245.39"/>
<polygon fill="green" stroke="green" points="559.34,-241.89 548.97,-244.08 558.44,-248.83 559.34,-241.89"/>
</g>
<!-- multi&#45;user.target&#45;&gt;getty.target -->
<g id="edge60" class="edge">
<title>multi&#45;user.target&#45;&gt;getty.target</title>
<path fill="none" stroke="#a8a8a8" d="M2342.76,-300.22C2270.04,-296.48 2162.44,-291.36 2068.33,-288 1434.31,-265.36 1274.02,-298.84 641.33,-252 615.72,-250.1 587.58,-246.85 562.77,-243.69"/>
<polygon fill="#a8a8a8" stroke="#a8a8a8" points="563.09,-240.21 552.73,-242.4 562.2,-247.15 563.09,-240.21"/>
</g>
<!-- multi&#45;user.target&#45;&gt;rescue.target -->
<g id="edge54" class="edge">
<title>multi&#45;user.target&#45;&gt;rescue.target</title>
<path fill="none" stroke="green" d="M2477.86,-291.09C2525.31,-278.9 2596.3,-261.28 2647.18,-249.05"/>
<polygon fill="green" stroke="green" points="2648.17,-252.41 2657.08,-246.68 2646.54,-245.61 2648.17,-252.41"/>
</g>
<!-- multi&#45;user.target&#45;&gt;rescue.target -->
<g id="edge63" class="edge">
<title>multi&#45;user.target&#45;&gt;rescue.target</title>
<path fill="none" stroke="red" d="M2484.41,-292.16C2533.44,-280.42 2603.64,-263.02 2652.57,-250.51"/>
<polygon fill="red" stroke="red" points="2653.55,-253.87 2662.36,-247.99 2651.81,-247.09 2653.55,-253.87"/>
</g>
<!-- multi&#45;user.target&#45;&gt;zfs.target -->
<g id="edge52" class="edge">
<title>multi&#45;user.target&#45;&gt;zfs.target</title>
<path fill="none" stroke="green" d="M2341.41,-301.19C2264.86,-297.63 2150.01,-292.24 2050.33,-288 1555.02,-266.92 958.23,-244.85 762.71,-237.52"/>
<polygon fill="green" stroke="green" points="762.73,-234.02 752.61,-237.15 762.47,-241.02 762.73,-234.02"/>
</g>
<!-- multi&#45;user.target&#45;&gt;zfs.target -->
<g id="edge58" class="edge">
<title>multi&#45;user.target&#45;&gt;zfs.target</title>
<path fill="none" stroke="#a8a8a8" d="M2342.38,-300.55C2269.65,-297.01 2162.26,-292 2068.33,-288 1566.34,-266.64 960.12,-244.25 762.76,-237.24"/>
<polygon fill="#a8a8a8" stroke="#a8a8a8" points="762.68,-233.73 752.56,-236.87 762.43,-240.73 762.68,-233.73"/>
</g>
<!-- multi&#45;user.target&#45;&gt;basic.target -->
<g id="edge55" class="edge">
<title>multi&#45;user.target&#45;&gt;basic.target</title>
<path fill="none" stroke="green" d="M2503.03,-296.42C2630.66,-282.46 2886.69,-255.11 3011.19,-242.14"/>
<polygon fill="green" stroke="green" points="3011.78,-245.6 3021.37,-241.09 3011.06,-238.64 3011.78,-245.6"/>
</g>
<!-- multi&#45;user.target&#45;&gt;basic.target -->
<g id="edge56" class="edge">
<title>multi&#45;user.target&#45;&gt;basic.target</title>
<path fill="none" stroke="black" d="M2505,-297.17C2633.72,-283.74 2889.07,-256.46 3012.45,-242.95"/>
<polygon fill="black" stroke="black" points="3012.98,-246.41 3022.54,-241.84 3012.22,-239.45 3012.98,-246.41"/>
</g>
<!-- multi&#45;user.target&#45;&gt;machines.target -->
<g id="edge53" class="edge">
<title>multi&#45;user.target&#45;&gt;machines.target</title>
<path fill="none" stroke="green" d="M2360.57,-293.99C2289.8,-281.72 2178.6,-261.89 2106.29,-248.65"/>
<polygon fill="green" stroke="green" points="2106.82,-245.19 2096.35,-246.83 2105.55,-252.07 2106.82,-245.19"/>
</g>
<!-- multi&#45;user.target&#45;&gt;machines.target -->
<g id="edge57" class="edge">
<title>multi&#45;user.target&#45;&gt;machines.target</title>
<path fill="none" stroke="#a8a8a8" d="M2365.18,-292.97C2296.19,-280.29 2184.94,-260.42 2110.95,-247.55"/>
<polygon fill="#a8a8a8" stroke="#a8a8a8" points="2111.22,-244.05 2100.77,-245.79 2110.02,-250.95 2111.22,-244.05"/>
</g>
<!-- remote&#45;fs.target -->
<g id="node33" class="node">
<title>remote&#45;fs.target</title>
<ellipse fill="none" stroke="black" cx="9098.33" cy="-234" rx="87.18" ry="18"/>
<text text-anchor="middle" x="9098.33" y="-230.3" font-family="Times,serif" font-size="14.00">remote&#45;fs.target</text>
</g>
<!-- multi&#45;user.target&#45;&gt;remote&#45;fs.target -->
<g id="edge59" class="edge">
<title>multi&#45;user.target&#45;&gt;remote&#45;fs.target</title>
<path fill="none" stroke="#a8a8a8" d="M2515.96,-304.07C3244.83,-296.42 8241.74,-243.99 9001.56,-236.02"/>
<polygon fill="#a8a8a8" stroke="#a8a8a8" points="9001.68,-239.51 9011.64,-235.91 9001.6,-232.51 9001.68,-239.51"/>
</g>
<!-- multi&#45;user.target&#45;&gt;cloud&#45;init.target -->
<g id="edge61" class="edge">
<title>multi&#45;user.target&#45;&gt;cloud&#45;init.target</title>
<path fill="none" stroke="#a8a8a8" d="M2434.26,-287.7C2439.71,-279.18 2447.26,-268.76 2454.69,-259.45"/>
<polygon fill="#a8a8a8" stroke="#a8a8a8" points="2457.48,-261.57 2461.13,-251.62 2452.08,-257.12 2457.48,-261.57"/>
</g>
<!-- rescue.target&#45;&gt;shutdown.target -->
<g id="edge85" class="edge">
<title>rescue.target&#45;&gt;shutdown.target</title>
<path fill="none" stroke="red" d="M2730.14,-251.42C2765,-283.05 2837.23,-353.05 2909.33,-396 2932.9,-410.04 2960.87,-421.74 2984.53,-430.53"/>
<polygon fill="red" stroke="red" points="2983.44,-433.86 2994.03,-434 2985.84,-427.29 2983.44,-433.86"/>
</g>
<!-- rescue.target&#45;&gt;sysinit.target -->
<g id="edge83" class="edge">
<title>rescue.target&#45;&gt;sysinit.target</title>
<path fill="none" stroke="green" d="M2746.48,-218.33C2778.04,-207 2823.62,-191.34 2859.22,-179.56"/>
<polygon fill="green" stroke="green" points="2860.57,-182.8 2868.97,-176.35 2858.38,-176.15 2860.57,-182.8"/>
</g>
<!-- rescue.target&#45;&gt;sysinit.target -->
<g id="edge84" class="edge">
<title>rescue.target&#45;&gt;sysinit.target</title>
<path fill="none" stroke="black" d="M2753.86,-219.59C2787.3,-208.64 2832.86,-193.07 2866.77,-181.03"/>
<polygon fill="black" stroke="black" points="2868.21,-184.23 2876.45,-177.58 2865.85,-177.64 2868.21,-184.23"/>
</g>
<!-- zfs.target&#45;&gt;shutdown.target -->
<g id="edge20" class="edge">
<title>zfs.target&#45;&gt;shutdown.target</title>
<path fill="none" stroke="red" d="M662.34,-248.05C592.53,-273.95 448.26,-334.67 508.33,-396 551.65,-440.24 2477.34,-447.65 2937.39,-448.8"/>
<polygon fill="red" stroke="red" points="2937.65,-452.3 2947.66,-448.83 2937.67,-445.3 2937.65,-452.3"/>
</g>
<!-- zfs.target&#45;&gt;zfs&#45;volumes.target -->
<g id="edge16" class="edge">
<title>zfs.target&#45;&gt;zfs&#45;volumes.target</title>
<path fill="none" stroke="green" d="M654.88,-222.14C615,-211.11 555.24,-193.84 511.65,-180.8"/>
<polygon fill="green" stroke="green" points="512.64,-177.44 502.05,-177.92 510.63,-184.15 512.64,-177.44"/>
</g>
<!-- zfs.target&#45;&gt;zfs&#45;volumes.target -->
<g id="edge19" class="edge">
<title>zfs.target&#45;&gt;zfs&#45;volumes.target</title>
<path fill="none" stroke="#a8a8a8" d="M659.82,-220.57C622.43,-209.21 564.48,-192.32 519.92,-179.77"/>
<polygon fill="#a8a8a8" stroke="#a8a8a8" points="520.63,-176.33 510.06,-177 518.74,-183.07 520.63,-176.33"/>
</g>
<!-- zfs.target&#45;&gt;zfs&#45;import.target -->
<g id="edge17" class="edge">
<title>zfs.target&#45;&gt;zfs&#45;import.target</title>
<path fill="none" stroke="green" d="M702.58,-216.05C707.23,-207.63 713.82,-197.28 720.42,-187.97"/>
<polygon fill="green" stroke="green" points="723.33,-189.92 726.43,-179.79 717.69,-185.77 723.33,-189.92"/>
</g>
<!-- zfs.target&#45;&gt;zfs&#45;import.target -->
<g id="edge18" class="edge">
<title>zfs.target&#45;&gt;zfs&#45;import.target</title>
<path fill="none" stroke="#a8a8a8" d="M713.8,-216.76C720.13,-208.53 727.09,-198.32 732.78,-189.02"/>
<polygon fill="#a8a8a8" stroke="#a8a8a8" points="735.95,-190.52 737.97,-180.12 729.91,-186.99 735.95,-190.52"/>
</g>
<!-- zfs&#45;volumes.target&#45;&gt;shutdown.target -->
<g id="edge35" class="edge">
<title>zfs&#45;volumes.target&#45;&gt;shutdown.target</title>
<path fill="none" stroke="red" d="M448.27,-180.15C441.31,-189.88 432.5,-202.73 428.33,-216 403.71,-294.27 404.36,-345.89 469.33,-396 519.16,-434.44 2474.21,-446.26 2937.59,-448.55"/>
<polygon fill="red" stroke="red" points="2937.59,-452.05 2947.61,-448.6 2937.62,-445.05 2937.59,-452.05"/>
</g>
<!-- zfs&#45;import.target&#45;&gt;shutdown.target -->
<g id="edge144" class="edge">
<title>zfs&#45;import.target&#45;&gt;shutdown.target</title>
<path fill="none" stroke="red" d="M753.79,-180.13C778.88,-231.75 838.68,-383.01 858.33,-396 902.34,-425.09 2519.55,-443.64 2937.55,-448"/>
<polygon fill="red" stroke="red" points="2937.76,-451.51 2947.79,-448.11 2937.83,-444.51 2937.76,-451.51"/>
</g>
<!-- getty&#45;pre.target&#45;&gt;shutdown.target -->
<g id="edge21" class="edge">
<title>getty&#45;pre.target&#45;&gt;shutdown.target</title>
<path fill="none" stroke="red" d="M1822.57,-390.13C1835.72,-392.41 1849.47,-394.56 1862.33,-396 2259.35,-440.6 2735.36,-448.02 2937.23,-449.02"/>
<polygon fill="red" stroke="red" points="2937.49,-452.52 2947.51,-449.06 2937.52,-445.52 2937.49,-452.52"/>
</g>
<!-- virt&#45;guest&#45;shutdown.target&#45;&gt;shutdown.target -->
<g id="edge22" class="edge">
<title>virt&#45;guest&#45;shutdown.target&#45;&gt;shutdown.target</title>
<path fill="none" stroke="red" d="M2097.17,-390.37C2115.53,-392.43 2134.53,-394.43 2152.33,-396 2438.69,-421.27 2777.86,-437.73 2939.93,-444.89"/>
<polygon fill="red" stroke="red" points="2940.2,-448.4 2950.34,-445.35 2940.51,-441.41 2940.2,-448.4"/>
</g>
<!-- network&#45;pre.target&#45;&gt;shutdown.target -->
<g id="edge23" class="edge">
<title>network&#45;pre.target&#45;&gt;shutdown.target</title>
<path fill="none" stroke="red" d="M1534.59,-252.02C1548.34,-286.37 1575.46,-363.46 1630.33,-396 1686.59,-429.37 2628.26,-443.9 2937.7,-447.84"/>
<polygon fill="red" stroke="red" points="2937.96,-451.34 2948,-447.97 2938.04,-444.35 2937.96,-451.34"/>
</g>
<!-- sockets.target&#45;&gt;shutdown.target -->
<g id="edge24" class="edge">
<title>sockets.target&#45;&gt;shutdown.target</title>
<path fill="none" stroke="red" d="M3054.62,-178.93C3040.47,-187.58 3024.68,-199.86 3016.33,-216 2981.3,-283.63 3012.36,-376.73 3028.16,-422.04"/>
<polygon fill="red" stroke="red" points="3024.94,-423.44 3031.54,-431.73 3031.55,-421.13 3024.94,-423.44"/>
</g>
<!-- sysinit.target&#45;&gt;shutdown.target -->
<g id="edge33" class="edge">
<title>sysinit.target&#45;&gt;shutdown.target</title>
<path fill="none" stroke="red" d="M2922.37,-180.05C2937.26,-219.49 2966.11,-319.5 3006.33,-396 3011.2,-405.27 3017.52,-414.77 3023.17,-423.11"/>
<polygon fill="red" stroke="red" points="3020.44,-425.33 3028.94,-431.65 3026.24,-421.4 3020.44,-425.33"/>
</g>
<!-- sysinit.target&#45;&gt;swap.target -->
<g id="edge26" class="edge">
<title>sysinit.target&#45;&gt;swap.target</title>
<path fill="none" stroke="green" d="M2960.03,-148.1C2969.02,-146.42 2978.4,-144.95 2987.33,-144 3017.61,-140.76 7050.63,-98.12 7658.88,-91.79"/>
<polygon fill="green" stroke="green" points="7659.32,-95.28 7669.28,-91.68 7659.25,-88.28 7659.32,-95.28"/>
</g>
<!-- sysinit.target&#45;&gt;swap.target -->
<g id="edge30" class="edge">
<title>sysinit.target&#45;&gt;swap.target</title>
<path fill="none" stroke="#a8a8a8" d="M2968.32,-149.89C2980.51,-147.49 2993.33,-145.28 3005.33,-144 3035.55,-140.77 7051.72,-98.3 7658.83,-91.83"/>
<polygon fill="#a8a8a8" stroke="#a8a8a8" points="7659.25,-95.32 7669.21,-91.72 7659.17,-88.32 7659.25,-95.32"/>
</g>
<!-- sysinit.target&#45;&gt;emergency.target -->
<g id="edge28" class="edge">
<title>sysinit.target&#45;&gt;emergency.target</title>
<path fill="none" stroke="green" d="M2841.03,-158.81C2513.22,-148.68 1166.42,-106.37 785.87,-94.26"/>
<polygon fill="green" stroke="green" points="785.81,-90.75 775.7,-93.93 785.59,-97.75 785.81,-90.75"/>
</g>
<!-- sysinit.target&#45;&gt;emergency.target -->
<g id="edge32" class="edge">
<title>sysinit.target&#45;&gt;emergency.target</title>
<path fill="none" stroke="red" d="M2840.89,-158.64C2512.82,-148.17 1166.33,-105.86 785.85,-94.06"/>
<polygon fill="red" stroke="red" points="785.79,-90.56 775.69,-93.75 785.58,-97.56 785.79,-90.56"/>
</g>
<!-- local&#45;fs.target -->
<g id="node23" class="node">
<title>local&#45;fs.target</title>
<ellipse fill="none" stroke="black" cx="6041.33" cy="-90" rx="75.29" ry="18"/>
<text text-anchor="middle" x="6041.33" y="-86.3" font-family="Times,serif" font-size="14.00">local&#45;fs.target</text>
</g>
<!-- sysinit.target&#45;&gt;local&#45;fs.target -->
<g id="edge25" class="edge">
<title>sysinit.target&#45;&gt;local&#45;fs.target</title>
<path fill="none" stroke="green" d="M2960.47,-148.06C2969.33,-146.41 2978.55,-144.97 2987.33,-144 3288.53,-110.82 5492.2,-94.56 5955.87,-91.53"/>
<polygon fill="green" stroke="green" points="5956.2,-95.03 5966.18,-91.46 5956.15,-88.03 5956.2,-95.03"/>
</g>
<!-- sysinit.target&#45;&gt;local&#45;fs.target -->
<g id="edge31" class="edge">
<title>sysinit.target&#45;&gt;local&#45;fs.target</title>
<path fill="none" stroke="#a8a8a8" d="M2968.32,-149.95C2980.51,-147.54 2993.34,-145.32 3005.33,-144 3305.39,-110.95 5493.53,-94.69 5955.75,-91.56"/>
<polygon fill="#a8a8a8" stroke="#a8a8a8" points="5956.04,-95.06 5966.02,-91.49 5956,-88.06 5956.04,-95.06"/>
</g>
<!-- sysinit.target&#45;&gt;cryptsetup.target -->
<g id="edge27" class="edge">
<title>sysinit.target&#45;&gt;cryptsetup.target</title>
<path fill="none" stroke="green" d="M2846.3,-154.48C2723.81,-142.11 2464.03,-115.2 2327.05,-100.7"/>
<polygon fill="green" stroke="green" points="2327.32,-97.21 2317,-99.64 2326.58,-104.17 2327.32,-97.21"/>
</g>
<!-- sysinit.target&#45;&gt;cryptsetup.target -->
<g id="edge29" class="edge">
<title>sysinit.target&#45;&gt;cryptsetup.target</title>
<path fill="none" stroke="#a8a8a8" d="M2847.94,-153.77C2726.84,-140.89 2467.68,-114 2329.46,-99.96"/>
<polygon fill="#a8a8a8" stroke="#a8a8a8" points="2329.62,-96.46 2319.32,-98.94 2328.91,-103.43 2329.62,-96.46"/>
</g>
<!-- local&#45;fs.target&#45;&gt;shutdown.target -->
<g id="edge94" class="edge">
<title>local&#45;fs.target&#45;&gt;shutdown.target</title>
<path fill="none" stroke="red" d="M6116.41,-91.84C6426.4,-95.48 7607.68,-111.28 7979.33,-144 8195.09,-163 8248.31,-176.79 8461.33,-216 8610.21,-243.4 9224.9,-288.49 9118.33,-396 9063.33,-451.47 3910.79,-449.68 3133.15,-449.09"/>
<polygon fill="red" stroke="red" points="3133.11,-445.59 3123.11,-449.08 3133.11,-452.59 3133.11,-445.59"/>
</g>
<!-- local&#45;fs.target&#45;&gt;local&#45;fs&#45;pre.target -->
<g id="edge93" class="edge">
<title>local&#45;fs.target&#45;&gt;local&#45;fs&#45;pre.target</title>
<path fill="none" stroke="green" d="M6115.96,-87.43C6551.66,-78.28 8764.37,-31.78 9269.54,-21.16"/>
<polygon fill="green" stroke="green" points="9269.8,-24.66 9279.73,-20.95 9269.65,-17.66 9269.8,-24.66"/>
</g>
<!-- cryptsetup.target&#45;&gt;shutdown.target -->
<g id="edge95" class="edge">
<title>cryptsetup.target&#45;&gt;shutdown.target</title>
<path fill="none" stroke="red" d="M2147.28,-93.74C1890.65,-102.54 1180.33,-135.42 1180.33,-233 1180.33,-307 1180.33,-307 1180.33,-307 1180.33,-348.47 1175.25,-370.99 1208.33,-396 1277.84,-448.56 2567.84,-450 2937.27,-449.3"/>
<polygon fill="red" stroke="red" points="2937.41,-452.8 2947.4,-449.28 2937.39,-445.8 2937.41,-452.8"/>
</g>
<!-- nss&#45;lookup.target&#45;&gt;shutdown.target -->
<g id="edge34" class="edge">
<title>nss&#45;lookup.target&#45;&gt;shutdown.target</title>
<path fill="none" stroke="red" d="M2797.88,-391.78C2848.75,-403.36 2921.56,-420.49 2973.16,-432.99"/>
<polygon fill="red" stroke="red" points="2972.64,-436.46 2983.18,-435.42 2974.29,-429.66 2972.64,-436.46"/>
</g>
<!-- basic.target&#45;&gt;timers.target -->
<g id="edge41" class="edge">
<title>basic.target&#45;&gt;timers.target</title>
<path fill="none" stroke="#a8a8a8" d="M3148.57,-235.09C3798.14,-236.09 9008.3,-247.67 9118.33,-360 9129.52,-371.43 9129.39,-384.45 9118.33,-396 9017.92,-500.81 6756.39,-518.17 6291.44,-520.63"/>
<polygon fill="#a8a8a8" stroke="#a8a8a8" points="6291.1,-517.13 6281.11,-520.68 6291.13,-524.13 6291.1,-517.13"/>
</g>
<!-- basic.target&#45;&gt;shutdown.target -->
<g id="edge45" class="edge">
<title>basic.target&#45;&gt;shutdown.target</title>
<path fill="none" stroke="red" d="M3082.43,-252.23C3077.8,-289.4 3058.75,-377.35 3045.92,-422"/>
<polygon fill="red" stroke="red" points="3042.49,-421.27 3042.97,-431.85 3049.19,-423.27 3042.49,-421.27"/>
</g>
<!-- basic.target&#45;&gt;sockets.target -->
<g id="edge37" class="edge">
<title>basic.target&#45;&gt;sockets.target</title>
<path fill="none" stroke="green" d="M3076.45,-216.05C3075.63,-208.35 3075.39,-199.03 3075.72,-190.36"/>
<polygon fill="green" stroke="green" points="3079.22,-190.49 3076.41,-180.28 3072.24,-190.01 3079.22,-190.49"/>
</g>
<!-- basic.target&#45;&gt;sockets.target -->
<g id="edge43" class="edge">
<title>basic.target&#45;&gt;sockets.target</title>
<path fill="none" stroke="#a8a8a8" d="M3088.2,-216.05C3089.02,-208.35 3089.26,-199.03 3088.93,-190.36"/>
<polygon fill="#a8a8a8" stroke="#a8a8a8" points="3092.42,-190.01 3088.24,-180.28 3085.43,-190.49 3092.42,-190.01"/>
</g>
<!-- basic.target&#45;&gt;sysinit.target -->
<g id="edge38" class="edge">
<title>basic.target&#45;&gt;sysinit.target</title>
<path fill="none" stroke="green" d="M3043.86,-219.34C3016.98,-208.8 2981.26,-194.1 2953.93,-182.35"/>
<polygon fill="green" stroke="green" points="2955.21,-179.09 2944.65,-178.33 2952.43,-185.52 2955.21,-179.09"/>
</g>
<!-- basic.target&#45;&gt;sysinit.target -->
<g id="edge40" class="edge">
<title>basic.target&#45;&gt;sysinit.target</title>
<path fill="none" stroke="black" d="M3051.73,-217.98C3026.84,-207.12 2991.39,-192.39 2962.55,-180.91"/>
<polygon fill="black" stroke="black" points="2963.64,-177.58 2953.05,-177.16 2961.06,-184.09 2963.64,-177.58"/>
</g>
<!-- basic.target&#45;&gt;slices.target -->
<g id="edge36" class="edge">
<title>basic.target&#45;&gt;slices.target</title>
<path fill="none" stroke="green" d="M3147.55,-230.72C3454.76,-220.21 4755.97,-176.48 5087.99,-165.51"/>
<polygon fill="green" stroke="green" points="5088.12,-169.01 5097.99,-165.18 5087.88,-162.01 5088.12,-169.01"/>
</g>
<!-- basic.target&#45;&gt;slices.target -->
<g id="edge42" class="edge">
<title>basic.target&#45;&gt;slices.target</title>
<path fill="none" stroke="#a8a8a8" d="M3147.75,-230.89C3455.38,-220.73 4756.42,-177.02 5088.13,-165.69"/>
<polygon fill="#a8a8a8" stroke="#a8a8a8" points="5088.25,-169.19 5098.13,-165.35 5088.01,-162.19 5088.25,-169.19"/>
</g>
<!-- basic.target&#45;&gt;paths.target -->
<g id="edge39" class="edge">
<title>basic.target&#45;&gt;paths.target</title>
<path fill="none" stroke="green" d="M3148.24,-232.02C3678.95,-224.21 7249.07,-172.36 7824.2,-164.11"/>
<polygon fill="green" stroke="green" points="7824.5,-167.6 7834.45,-163.96 7824.4,-160.6 7824.5,-167.6"/>
</g>
<!-- basic.target&#45;&gt;paths.target -->
<g id="edge44" class="edge">
<title>basic.target&#45;&gt;paths.target</title>
<path fill="none" stroke="#a8a8a8" d="M3148.54,-232.06C3680.22,-224.44 7248.52,-172.62 7824.04,-164.16"/>
<polygon fill="#a8a8a8" stroke="#a8a8a8" points="7824.35,-167.66 7834.3,-164.01 7824.25,-160.66 7824.35,-167.66"/>
</g>
<!-- slices.target&#45;&gt;shutdown.target -->
<g id="edge47" class="edge">
<title>slices.target&#45;&gt;shutdown.target</title>
<path fill="none" stroke="red" d="M5232.89,-164.72C5556.76,-173.83 6939.3,-221.27 7064.33,-360 7075.04,-371.89 7075.56,-384.61 7064.33,-396 7028.72,-432.08 3745.48,-446.33 3133.07,-448.65"/>
<polygon fill="red" stroke="red" points="3132.94,-445.15 3122.96,-448.69 3132.97,-452.15 3132.94,-445.15"/>
</g>
<!-- paths.target&#45;&gt;shutdown.target -->
<g id="edge77" class="edge">
<title>paths.target&#45;&gt;shutdown.target</title>
<path fill="none" stroke="red" d="M7969.56,-165.48C8167.56,-175.02 8723.38,-218.25 8547.33,-396 8497.77,-446.04 3867.96,-448.86 3133.1,-449"/>
<polygon fill="red" stroke="red" points="3133.08,-445.5 3123.08,-449 3133.08,-452.5 3133.08,-445.5"/>
</g>
<!-- machines.target&#45;&gt;shutdown.target -->
<g id="edge46" class="edge">
<title>machines.target&#45;&gt;shutdown.target</title>
<path fill="none" stroke="red" d="M1956.73,-241.62C1819.04,-255.67 1557.87,-295.8 1654.33,-396 1698.87,-442.27 2629.56,-448.24 2937.45,-448.94"/>
<polygon fill="red" stroke="red" points="2937.69,-452.44 2947.7,-448.96 2937.7,-445.44 2937.69,-452.44"/>
</g>
<!-- blockdev@dev&#45;disk&#45;by\x2duuid&#45;3651\x2d6028.target&#45;&gt;shutdown.target -->
<g id="edge48" class="edge">
<title>blockdev@dev&#45;disk&#45;by\x2duuid&#45;3651\x2d6028.target&#45;&gt;shutdown.target</title>
<path fill="none" stroke="red" d="M3260.6,-395.48C3214.07,-407.14 3150.41,-422.65 3102.59,-433.97"/>
<polygon fill="red" stroke="red" points="3101.57,-430.62 3092.64,-436.32 3103.18,-437.43 3101.57,-430.62"/>
</g>
<!-- blockdev@dev&#45;loop1.target&#45;&gt;shutdown.target -->
<g id="edge49" class="edge">
<title>blockdev@dev&#45;loop1.target&#45;&gt;shutdown.target</title>
<path fill="none" stroke="red" d="M3633.37,-391.23C3618.98,-392.88 3604.28,-394.51 3590.33,-396 3426.63,-413.47 3235.07,-431.51 3125.13,-441.39"/>
<polygon fill="red" stroke="red" points="3124.72,-437.91 3115.07,-442.29 3125.35,-444.88 3124.72,-437.91"/>
</g>
<!-- printer.target&#45;&gt;shutdown.target -->
<g id="edge50" class="edge">
<title>printer.target&#45;&gt;shutdown.target</title>
<path fill="none" stroke="red" d="M3909.25,-391.75C3900.67,-393.38 3891.78,-394.87 3883.33,-396 3613.3,-432.01 3291.02,-443.68 3132.74,-447.37"/>
<polygon fill="red" stroke="red" points="3132.47,-443.87 3122.55,-447.6 3132.63,-450.87 3132.47,-443.87"/>
</g>
<!-- remote&#45;fs.target&#45;&gt;shutdown.target -->
<g id="edge92" class="edge">
<title>remote&#45;fs.target&#45;&gt;shutdown.target</title>
<path fill="none" stroke="red" d="M9113.43,-251.87C9140.62,-284.27 9191.41,-355.56 9151.33,-396 9096.02,-451.79 3912.81,-449.72 3133.07,-449.09"/>
<polygon fill="red" stroke="red" points="3133,-445.59 3123,-449.08 3133,-452.59 3133,-445.59"/>
</g>
<!-- remote&#45;fs.target&#45;&gt;remote&#45;fs&#45;pre.target -->
<g id="edge91" class="edge">
<title>remote&#45;fs.target&#45;&gt;remote&#45;fs&#45;pre.target</title>
<path fill="none" stroke="green" d="M9107.52,-216.05C9111.89,-208.01 9117.21,-198.2 9122.09,-189.23"/>
<polygon fill="green" stroke="green" points="9125.25,-190.73 9126.95,-180.28 9119.1,-187.39 9125.25,-190.73"/>
</g>
<!-- cloud&#45;init.target&#45;&gt;shutdown.target -->
<g id="edge76" class="edge">
<title>cloud&#45;init.target&#45;&gt;shutdown.target</title>
<path fill="none" stroke="red" d="M2499.06,-251.7C2539.61,-291.08 2628.55,-387.11 2646.33,-396 2697.06,-421.36 2844.13,-435.9 2942.24,-443.12"/>
<polygon fill="red" stroke="red" points="2942.24,-446.63 2952.47,-443.86 2942.74,-439.65 2942.24,-446.63"/>
</g>
<!-- cloud&#45;init.target&#45;&gt;multi&#45;user.target -->
<g id="edge75" class="edge">
<title>cloud&#45;init.target&#45;&gt;multi&#45;user.target</title>
<path fill="none" stroke="green" d="M2472.41,-252.28C2467.01,-260.71 2459.55,-271.01 2452.18,-280.27"/>
<polygon fill="green" stroke="green" points="2449.43,-278.1 2445.79,-288.05 2454.84,-282.55 2449.43,-278.1"/>
</g>
<!-- sound.target&#45;&gt;shutdown.target -->
<g id="edge64" class="edge">
<title>sound.target&#45;&gt;shutdown.target</title>
<path fill="none" stroke="red" d="M4074.02,-391.85C4065.86,-393.47 4057.39,-394.93 4049.33,-396 3715.53,-440.43 3314.71,-448 3133.13,-449.03"/>
<polygon fill="red" stroke="red" points="3133.05,-445.53 3123.07,-449.08 3133.09,-452.53 3133.05,-445.53"/>
</g>
<!-- cloud&#45;config.target&#45;&gt;shutdown.target -->
<g id="edge67" class="edge">
<title>cloud&#45;config.target&#45;&gt;shutdown.target</title>
<path fill="none" stroke="red" d="M4241.26,-391.71C4230,-393.37 4218.37,-394.87 4207.33,-396 3810.81,-436.41 3335.09,-446.01 3133.35,-448.29"/>
<polygon fill="red" stroke="red" points="3133.04,-444.79 3123.07,-448.4 3133.11,-451.79 3133.04,-444.79"/>
</g>
<!-- blockdev@dev&#45;loop5.target&#45;&gt;shutdown.target -->
<g id="edge68" class="edge">
<title>blockdev@dev&#45;loop5.target&#45;&gt;shutdown.target</title>
<path fill="none" stroke="red" d="M4468.68,-391.56C4452.93,-393.26 4436.7,-394.82 4421.33,-396 3939.15,-433.11 3359.88,-444.66 3133.06,-447.88"/>
<polygon fill="red" stroke="red" points="3132.81,-444.38 3122.86,-448.02 3132.9,-451.38 3132.81,-444.38"/>
</g>
<!-- time&#45;sync.target&#45;&gt;shutdown.target -->
<g id="edge71" class="edge">
<title>time&#45;sync.target&#45;&gt;shutdown.target</title>
<path fill="none" stroke="red" d="M2305.87,-389.66C2320.24,-392 2335.29,-394.29 2349.33,-396 2560.2,-421.73 2808.68,-437.1 2941.13,-444.21"/>
<polygon fill="red" stroke="red" points="2941.07,-447.71 2951.24,-444.75 2941.44,-440.72 2941.07,-447.71"/>
</g>
<!-- time&#45;sync.target&#45;&gt;time&#45;set.target -->
<g id="edge69" class="edge">
<title>time&#45;sync.target&#45;&gt;time&#45;set.target</title>
<path fill="none" stroke="green" d="M2184.11,-364.08C2138.15,-352.6 2073.04,-335.75 2026.54,-323.34"/>
<polygon fill="green" stroke="green" points="2027.18,-319.89 2016.62,-320.68 2025.37,-326.65 2027.18,-319.89"/>
</g>
<!-- time&#45;sync.target&#45;&gt;time&#45;set.target -->
<g id="edge70" class="edge">
<title>time&#45;sync.target&#45;&gt;time&#45;set.target</title>
<path fill="none" stroke="#a8a8a8" d="M2190.86,-363C2146.67,-351.13 2081.2,-334.15 2032.84,-322"/>
<polygon fill="#a8a8a8" stroke="#a8a8a8" points="2033.66,-318.6 2023.11,-319.56 2031.96,-325.39 2033.66,-318.6"/>
</g>
<!-- blockdev@dev&#45;loop3.target&#45;&gt;shutdown.target -->
<g id="edge72" class="edge">
<title>blockdev@dev&#45;loop3.target&#45;&gt;shutdown.target</title>
<path fill="none" stroke="red" d="M4763.08,-391.61C4747.21,-393.31 4730.83,-394.86 4715.33,-396 4115.46,-440.12 3391.79,-447.54 3133.06,-448.77"/>
<polygon fill="red" stroke="red" points="3132.93,-445.27 3122.95,-448.81 3132.96,-452.27 3132.93,-445.27"/>
</g>
<!-- blockdev@dev&#45;loop11.target&#45;&gt;shutdown.target -->
<g id="edge73" class="edge">
<title>blockdev@dev&#45;loop11.target&#45;&gt;shutdown.target</title>
<path fill="none" stroke="red" d="M5058.7,-391.66C5042.29,-393.35 5025.35,-394.89 5009.33,-396 4290.91,-445.77 3421.74,-449.5 3133.43,-449.28"/>
<polygon fill="red" stroke="red" points="3133.01,-445.78 3123.01,-449.27 3133.01,-452.78 3133.01,-445.78"/>
</g>
<!-- blockdev@dev&#45;sdb1.target&#45;&gt;shutdown.target -->
<g id="edge74" class="edge">
<title>blockdev@dev&#45;sdb1.target&#45;&gt;shutdown.target</title>
<path fill="none" stroke="red" d="M5360.79,-391.73C5345.36,-393.42 5329.41,-394.93 5314.33,-396 4880.95,-426.75 3510.9,-443.84 3132.78,-448"/>
<polygon fill="red" stroke="red" points="3132.65,-444.5 3122.69,-448.11 3132.73,-451.5 3132.65,-444.5"/>
</g>
<!-- blockdev@dev&#45;loop8.target&#45;&gt;shutdown.target -->
<g id="edge78" class="edge">
<title>blockdev@dev&#45;loop8.target&#45;&gt;shutdown.target</title>
<path fill="none" stroke="red" d="M5648.76,-391.76C5633.01,-393.44 5616.73,-394.95 5601.33,-396 5108.6,-429.72 3541.37,-444.86 3133.23,-448.25"/>
<polygon fill="red" stroke="red" points="3132.91,-444.75 3122.94,-448.33 3132.97,-451.75 3132.91,-444.75"/>
</g>
<!-- blockdev@dev&#45;disk&#45;by\x2duuid&#45;0c1c9145\x2d6f73\x2d4a99\x2d8ce6\x2db8f5af48622d.target&#45;&gt;shutdown.target -->
<g id="edge79" class="edge">
<title>blockdev@dev&#45;disk&#45;by\x2duuid&#45;0c1c9145\x2d6f73\x2d4a99\x2d8ce6\x2db8f5af48622d.target&#45;&gt;shutdown.target</title>
<path fill="none" stroke="red" d="M6034.78,-391.35C5987.87,-393.07 5939.78,-394.7 5894.33,-396 4811.81,-427.07 3497.46,-443.75 3133.02,-447.94"/>
<polygon fill="red" stroke="red" points="3132.74,-444.44 3122.78,-448.06 3132.82,-451.44 3132.74,-444.44"/>
</g>
<!-- blockdev@dev&#45;loop0.target&#45;&gt;shutdown.target -->
<g id="edge80" class="edge">
<title>blockdev@dev&#45;loop0.target&#45;&gt;shutdown.target</title>
<path fill="none" stroke="red" d="M6819.16,-391.8C6803.28,-393.49 6786.86,-394.99 6771.33,-396 6034.2,-444.03 3647.64,-448.55 3133.49,-448.96"/>
<polygon fill="red" stroke="red" points="3133.14,-445.46 3123.14,-448.97 3133.14,-452.46 3133.14,-445.46"/>
</g>
<!-- local&#45;fs&#45;pre.target&#45;&gt;shutdown.target -->
<g id="edge81" class="edge">
<title>local&#45;fs&#45;pre.target&#45;&gt;shutdown.target</title>
<path fill="none" stroke="red" d="M9378.04,-36.05C9381.33,-62.71 9381.33,-115.89 9381.33,-161 9381.33,-235 9381.33,-235 9381.33,-235 9381.33,-322.42 9345.72,-355.35 9268.33,-396 9197.46,-433.22 3921.29,-446.95 3133.3,-448.78"/>
<polygon fill="red" stroke="red" points="3133.13,-445.28 3123.13,-448.81 3133.14,-452.28 3133.13,-445.28"/>
</g>
<!-- blockdev@dev&#45;loop6.target&#45;&gt;shutdown.target -->
<g id="edge82" class="edge">
<title>blockdev@dev&#45;loop6.target&#45;&gt;shutdown.target</title>
<path fill="none" stroke="red" d="M7167.56,-391.56C7150.27,-393.35 7132.29,-394.94 7115.33,-396 6305.69,-446.42 3675.16,-449.03 3133.42,-449.03"/>
<polygon fill="red" stroke="red" points="3133.29,-445.53 3123.29,-449.03 3133.29,-452.53 3133.29,-445.53"/>
</g>
<!-- nss&#45;user&#45;lookup.target&#45;&gt;shutdown.target -->
<g id="edge86" class="edge">
<title>nss&#45;user&#45;lookup.target&#45;&gt;shutdown.target</title>
<path fill="none" stroke="red" d="M7455.31,-391.81C7441.73,-393.51 7427.65,-395.01 7414.33,-396 6975.23,-428.64 3739.48,-445.66 3133.08,-448.55"/>
<polygon fill="red" stroke="red" points="3133.05,-445.05 3123.06,-448.6 3133.08,-452.05 3133.05,-445.05"/>
</g>
<!-- blockdev@dev&#45;loop10.target&#45;&gt;shutdown.target -->
<g id="edge87" class="edge">
<title>blockdev@dev&#45;loop10.target&#45;&gt;shutdown.target</title>
<path fill="none" stroke="red" d="M7713.27,-391.75C7696.37,-393.47 7678.87,-394.99 7662.33,-396 6737.19,-452.57 3716.48,-450.19 3133.27,-449.2"/>
<polygon fill="red" stroke="red" points="3133.22,-445.7 3123.21,-449.18 3133.21,-452.7 3133.22,-445.7"/>
</g>
<!-- blockdev@dev&#45;loop4.target&#45;&gt;shutdown.target -->
<g id="edge88" class="edge">
<title>blockdev@dev&#45;loop4.target&#45;&gt;shutdown.target</title>
<path fill="none" stroke="red" d="M8016.55,-391.81C8000.55,-393.51 7983.99,-395.01 7968.33,-396 7470.3,-427.59 3784.63,-445.64 3133.47,-448.58"/>
<polygon fill="red" stroke="red" points="3133.17,-445.08 3123.19,-448.62 3133.2,-452.08 3133.17,-445.08"/>
</g>
<!-- blockdev@dev&#45;sda1.target&#45;&gt;shutdown.target -->
<g id="edge89" class="edge">
<title>blockdev@dev&#45;sda1.target&#45;&gt;shutdown.target</title>
<path fill="none" stroke="red" d="M8308.95,-391.78C8293.16,-393.49 8276.79,-395 8261.33,-396 7732.09,-430.05 3804.9,-446.16 3132.98,-448.65"/>
<polygon fill="red" stroke="red" points="3132.84,-445.15 3122.85,-448.69 3132.86,-452.15 3132.84,-445.15"/>
</g>
<!-- remote&#45;fs&#45;pre.target&#45;&gt;shutdown.target -->
<g id="edge90" class="edge">
<title>remote&#45;fs&#45;pre.target&#45;&gt;shutdown.target</title>
<path fill="none" stroke="red" d="M9170.2,-179.07C9183.35,-188.23 9196.67,-200.9 9203.33,-216 9235.84,-289.75 9242.24,-343.23 9181.33,-396 9121.69,-447.66 3914.65,-449.09 3133.05,-449.02"/>
<polygon fill="red" stroke="red" points="3132.96,-445.52 3122.96,-449.02 3132.96,-452.52 3132.96,-445.52"/>
</g>
<!-- blockdev@dev&#45;disk&#45;by\x2dlabel&#45;VM\x2dImages.target&#45;&gt;shutdown.target -->
<g id="edge145" class="edge">
<title>blockdev@dev&#45;disk&#45;by\x2dlabel&#45;VM\x2dImages.target&#45;&gt;shutdown.target</title>
<path fill="none" stroke="red" d="M8689.32,-391.55C8659.08,-393.33 8627.8,-394.92 8598.33,-396 7473.63,-437.14 3782.26,-447.32 3133.2,-448.8"/>
<polygon fill="red" stroke="red" points="3132.95,-445.3 3122.95,-448.82 3132.96,-452.3 3132.95,-445.3"/>
</g>
</g>
</svg>
